single_cycle/transcript
# Reading D:/modelsim/tcl/vsim/pref.tcl
# //  ModelSim SE-64 10.4 Dec  3 2014 
# //
# //  Copyright 1991-2014 Mentor Graphics Corporation
# //  All Rights Reserved.
# //
# //  THIS WORK CONTAINS TRADE SECRET AND PROPRIETARY INFORMATION
# //  WHICH IS THE PROPERTY OF MENTOR GRAPHICS CORPORATION OR ITS
# //  LICENSORS AND IS SUBJECT TO LICENSE TERMS.
# //  THIS DOCUMENT CONTAINS TRADE SECRETS AND COMMERCIAL OR FINANCIAL
# //  INFORMATION THAT ARE PRIVILEGED, CONFIDENTIAL, AND EXEMPT FROM
# //  DISCLOSURE UNDER THE FREEDOM OF INFORMATION ACT, 5 U.S.C. SECTION 552.
# //  FURTHERMORE, THIS INFORMATION IS PROHIBITED FROM DISCLOSURE UNDER
# //  THE TRADE SECRETS ACT, 18 U.S.C. SECTION 1905.
# //
# OpenFile C:/Users/win/Desktop/MIPS_single_cycle/MIPS_single.mpf
# Loading project MIPS_single
# Compile of signext.v was successful.
# Compile of ALU.v was successful.
# Compile of AluCtr.v was successful.
# Compile of Dmemory.v was successful.
# Compile of regfile.v was successful.
# Compile of IM.v was successful.
# Compile of top_single.v was successful.
# Compile of Ctr.v was successful.
# Compile of Testbench_single.v was successful.
# 9 compiles, 0 failed with no errors.
# Compile of signext.v was successful.
# Compile of ALU.v was successful.
# Compile of AluCtr.v was successful.
# Compile of Dmemory.v was successful.
# Compile of regfile.v was successful.
# Compile of IM.v was successful.
# Compile of top_single.v was successful.
# Compile of Ctr.v was successful.
# Compile of Testbench_single.v was successful.
# 9 compiles, 0 failed with no errors.
vsim -gui -novopt work.TestBench_single
# vsim -gui C:\Users\win\Desktop\MIPS_single_cycle\MIPS_single.mpf 
# Start time: 20:24:06 on Jan 07,2018
# ** Warning: (vsim-8891) All optimizations are turned off because the -novopt switch is in effect. This will cause your simulation to run very slowly. If you are using this switch to preserve visibility for Debug or PLI features please see the User's Manual section on Preserving Object Visibility with vopt.
# 
# Loading work.TestBench_single
# Refreshing C:/Users/win/Desktop/MIPS_single_cycle/work.top_single
# Loading work.top_single
# Refreshing C:/Users/win/Desktop/MIPS_single_cycle/work.IM
# Loading work.IM
# Refreshing C:/Users/win/Desktop/MIPS_single_cycle/work.Ctr
# Loading work.Ctr
# Refreshing C:/Users/win/Desktop/MIPS_single_cycle/work.regfile
# Loading work.regfile
# Refreshing C:/Users/win/Desktop/MIPS_single_cycle/work.AluCtr
# Loading work.AluCtr
# Refreshing C:/Users/win/Desktop/MIPS_single_cycle/work.signext
# Loading work.signext
# Refreshing C:/Users/win/Desktop/MIPS_single_cycle/work.ALU
# Loading work.ALU
# Refreshing C:/Users/win/Desktop/MIPS_single_cycle/work.Dmemory
# Loading work.Dmemory
run
# Time  =          0, [clk] = 0
# [$s0] =          x, [$s1] =          x, [$s2] =          x
# [$s3] =          x, [$s4] =          x, [$s5] =          x
# [$s6] =          x, [$s7] =          x, [$t0] =          x
# [$t1] =          x, [$t2] =          x, [$t3] =          x
# [$t4] =          x, [$t5] =          x, [$t6] =          x
# [$t7] =          x, [$t8] =          x, [$t9] =          x
#  
# Time  =          1, [clk] = 1
# [$s0] =          0, [$s1] =          0, [$s2] =          0
# [$s3] =          0, [$s4] =          0, [$s5] =          0
# [$s6] =          0, [$s7] =          0, [$t0] =          0
# [$t1] =          0, [$t2] =          0, [$t3] =          0
# [$t4] =          0, [$t5] =          0, [$t6] =          0
# [$t7] =          0, [$t8] =          0, [$t9] =          0
#  
# Time  =          1, [clk] = 0
# [$s0] =          0, [$s1] =         18, [$s2] =          0
# [$s3] =          0, [$s4] =          0, [$s5] =          0
# [$s6] =          0, [$s7] =          0, [$t0] =          0
# [$t1] =          0, [$t2] =          0, [$t3] =          0
# [$t4] =          0, [$t5] =          0, [$t6] =          0
# [$t7] =          0, [$t8] =          0, [$t9] =          0
#  
# Time  =          2, [clk] = 1
# [$s0] =          0, [$s1] =         18, [$s2] =          0
# [$s3] =          0, [$s4] =          0, [$s5] =          0
# [$s6] =          0, [$s7] =          0, [$t0] =          0
# [$t1] =          0, [$t2] =          0, [$t3] =          0
# [$t4] =          0, [$t5] =          0, [$t6] =          0
# [$t7] =          0, [$t8] =          0, [$t9] =          0
#  
# Time  =          2, [clk] = 0
# [$s0] =          8, [$s1] =         18, [$s2] =          0
# [$s3] =          0, [$s4] =          0, [$s5] =          0
# [$s6] =          0, [$s7] =          0, [$t0] =          0
# [$t1] =          0, [$t2] =          0, [$t3] =          0
# [$t4] =          0, [$t5] =          0, [$t6] =          0
# [$t7] =          0, [$t8] =          0, [$t9] =          0
#  
# Time  =          3, [clk] = 1
# [$s0] =          8, [$s1] =         18, [$s2] =          0
# [$s3] =          0, [$s4] =          0, [$s5] =          0
# [$s6] =          0, [$s7] =          0, [$t0] =          0
# [$t1] =          0, [$t2] =          0, [$t3] =          0
# [$t4] =          0, [$t5] =          0, [$t6] =          0
# [$t7] =          0, [$t8] =          0, [$t9] =          0
#  
# Time  =          3, [clk] = 0
# [$s0] =          8, [$s1] =         18, [$s2] =          0
# [$s3] =          0, [$s4] =          0, [$s5] =          0
# [$s6] =          0, [$s7] =          0, [$t0] =          2
# [$t1] =          0, [$t2] =          0, [$t3] =          0
# [$t4] =          0, [$t5] =          0, [$t6] =          0
# [$t7] =          0, [$t8] =          0, [$t9] =          0
#  
# Time  =          4, [clk] = 1
# [$s0] =          8, [$s1] =         18, [$s2] =          0
# [$s3] =          0, [$s4] =          0, [$s5] =          0
# [$s6] =          0, [$s7] =          0, [$t0] =          2
# [$t1] =          0, [$t2] =          0, [$t3] =          0
# [$t4] =          0, [$t5] =          0, [$t6] =          0
# [$t7] =          0, [$t8] =          0, [$t9] =          0
#  
# Time  =          4, [clk] = 0
# [$s0] =          8, [$s1] =         18, [$s2] =          0
# [$s3] =          0, [$s4] =          0, [$s5] =          0
# [$s6] =          0, [$s7] =          0, [$t0] =          2
# [$t1] =         26, [$t2] =          0, [$t3] =          0
# [$t4] =          0, [$t5] =          0, [$t6] =          0
# [$t7] =          0, [$t8] =          0, [$t9] =          0
#  
# Time  =          5, [clk] = 1
# [$s0] =          8, [$s1] =         18, [$s2] =          0
# [$s3] =          0, [$s4] =          0, [$s5] =          0
# [$s6] =          0, [$s7] =          0, [$t0] =          2
# [$t1] =         26, [$t2] =          0, [$t3] =          0
# [$t4] =          0, [$t5] =          0, [$t6] =          0
# [$t7] =          0, [$t8] =          0, [$t9] =          0
#  
# Time  =          5, [clk] = 0
# [$s0] =          8, [$s1] =         18, [$s2] =          0
# [$s3] =          0, [$s4] =          0, [$s5] =          0
# [$s6] =          0, [$s7] =          0, [$t0] =          2
# [$t1] =         26, [$t2] =          0, [$t3] =          0
# [$t4] =          0, [$t5] =          0, [$t6] =          0
# [$t7] =          0, [$t8] =          0, [$t9] =          0
#  
# Time  =          6, [clk] = 1
# [$s0] =          8, [$s1] =         18, [$s2] =          0
# [$s3] =          0, [$s4] =          0, [$s5] =          0
# [$s6] =          0, [$s7] =          0, [$t0] =          2
# [$t1] =         26, [$t2] =          0, [$t3] =          0
# [$t4] =          0, [$t5] =          0, [$t6] =          0
# [$t7] =          0, [$t8] =          0, [$t9] =          0
#  
# Time  =          6, [clk] = 0
# [$s0] =          8, [$s1] =          8, [$s2] =          0
# [$s3] =          0, [$s4] =          0, [$s5] =          0
# [$s6] =          0, [$s7] =          0, [$t0] =          2
# [$t1] =         26, [$t2] =          0, [$t3] =          0
# [$t4] =          0, [$t5] =          0, [$t6] =          0
# [$t7] =          0, [$t8] =          0, [$t9] =          0
#  
# Time  =          7, [clk] = 1
# [$s0] =          8, [$s1] =          8, [$s2] =          0
# [$s3] =          0, [$s4] =          0, [$s5] =          0
# [$s6] =          0, [$s7] =          0, [$t0] =          2
# [$t1] =         26, [$t2] =          0, [$t3] =          0
# [$t4] =          0, [$t5] =          0, [$t6] =          0
# [$t7] =          0, [$t8] =          0, [$t9] =          0
#  
# Time  =          7, [clk] = 0
# [$s0] =          8, [$s1] =          8, [$s2] =          0
# [$s3] =          0, [$s4] =          0, [$s5] =          0
# [$s6] =          0, [$s7] =          0, [$t0] =          2
# [$t1] =         26, [$t2] =          0, [$t3] =          0
# [$t4] =          0, [$t5] =          0, [$t6] =          0
# [$t7] =          0, [$t8] =          0, [$t9] =          0
#  
# Time  =          8, [clk] = 1
# [$s0] =          8, [$s1] =          8, [$s2] =          0
# [$s3] =          0, [$s4] =          0, [$s5] =          0
# [$s6] =          0, [$s7] =          0, [$t0] =          2
# [$t1] =         26, [$t2] =          0, [$t3] =          0
# [$t4] =          0, [$t5] =          0, [$t6] =          0
# [$t7] =          0, [$t8] =          0, [$t9] =          0
#  
# Time  =          8, [clk] = 0
# [$s0] =          8, [$s1] =          8, [$s2] =          0
# [$s3] =          0, [$s4] =          0, [$s5] =          0
# [$s6] =          0, [$s7] =          0, [$t0] =          2
# [$t1] =         26, [$t2] =          0, [$t3] =          0
# [$t4] =          0, [$t5] =          0, [$t6] =          0
# [$t7] =          0, [$t8] =          0, [$t9] =          0
#  
# Time  =          9, [clk] = 1
# [$s0] =          8, [$s1] =          8, [$s2] =          0
# [$s3] =          0, [$s4] =          0, [$s5] =          0
# [$s6] =          0, [$s7] =          0, [$t0] =          2
# [$t1] =         26, [$t2] =          0, [$t3] =          0
# [$t4] =          0, [$t5] =          0, [$t6] =          0
# [$t7] =          0, [$t8] =          0, [$t9] =          0
#  
# Time  =          9, [clk] = 0
# [$s0] =          8, [$s1] =          8, [$s2] =          0
# [$s3] =          0, [$s4] =          0, [$s5] =          0
# [$s6] =          0, [$s7] =          0, [$t0] =          2
# [$t1] =         26, [$t2] =          0, [$t3] =          0
# [$t4] =          0, [$t5] =          0, [$t6] =          0
# [$t7] =          0, [$t8] =          0, [$t9] =          0
#  
# Time  =         10, [clk] = 1
# [$s0] =          8, [$s1] =          8, [$s2] =          0
# [$s3] =          0, [$s4] =          0, [$s5] =          0
# [$s6] =          0, [$s7] =          0, [$t0] =          2
# [$t1] =         26, [$t2] =          0, [$t3] =          0
# [$t4] =          0, [$t5] =          0, [$t6] =          0
# [$t7] =          0, [$t8] =          0, [$t9] =          0
#  
# Time  =         10, [clk] = 0
# [$s0] =          8, [$s1] =          8, [$s2] =          0
# [$s3] =          0, [$s4] =          0, [$s5] =          0
# [$s6] =          0, [$s7] =          0, [$t0] =          2
# [$t1] =         26, [$t2] =         10, [$t3] =          0
# [$t4] =          0, [$t5] =          0, [$t6] =          0
# [$t7] =          0, [$t8] =          0, [$t9] =          0
#  
# Time  =         11, [clk] = 1
# [$s0] =          8, [$s1] =          8, [$s2] =          0
# [$s3] =          0, [$s4] =          0, [$s5] =          0
# [$s6] =          0, [$s7] =          0, [$t0] =          2
# [$t1] =         26, [$t2] =         10, [$t3] =          0
# [$t4] =          0, [$t5] =          0, [$t6] =          0
# [$t7] =          0, [$t8] =          0, [$t9] =          0
#  
# Time  =         11, [clk] = 0
# [$s0] =          8, [$s1] =          8, [$s2] =          0
# [$s3] =          0, [$s4] =          0, [$s5] =          0
# [$s6] =          0, [$s7] =          0, [$t0] =          2
# [$t1] =         26, [$t2] =         10, [$t3] =          0
# [$t4] =          0, [$t5] =          0, [$t6] =          0
# [$t7] =          0, [$t8] =          0, [$t9] =          0
#  
# Time  =         12, [clk] = 1
# [$s0] =          8, [$s1] =          8, [$s2] =          0
# [$s3] =          0, [$s4] =          0, [$s5] =          0
# [$s6] =          0, [$s7] =          0, [$t0] =          2
# [$t1] =         26, [$t2] =         10, [$t3] =          0
# [$t4] =          0, [$t5] =          0, [$t6] =          0
# [$t7] =          0, [$t8] =          0, [$t9] =          0
#  
# Time  =         12, [clk] = 0
# [$s0] =          8, [$s1] =          8, [$s2] =          0
# [$s3] =          0, [$s4] =          0, [$s5] =          0
# [$s6] =          0, [$s7] =          0, [$t0] =          2
# [$t1] =         26, [$t2] =         10, [$t3] =          0
# [$t4] =          0, [$t5] =          0, [$t6] =          0
# [$t7] =          0, [$t8] =          0, [$t9] =          0
#  
# Time  =         13, [clk] = 1
# [$s0] =          8, [$s1] =          8, [$s2] =          0
# [$s3] =          0, [$s4] =          0, [$s5] =          0
# [$s6] =          0, [$s7] =          0, [$t0] =          2
# [$t1] =         26, [$t2] =         10, [$t3] =          0
# [$t4] =          0, [$t5] =          0, [$t6] =          0
# [$t7] =          0, [$t8] =          0, [$t9] =          0
#  
# Time  =         13, [clk] = 0
# [$s0] =          8, [$s1] =          8, [$s2] =          0
# [$s3] =          0, [$s4] =          0, [$s5] =          0
# [$s6] =          0, [$s7] =          0, [$t0] =          2
# [$t1] =         26, [$t2] =         10, [$t3] =          0
# [$t4] =          0, [$t5] =          0, [$t6] =          0
# [$t7] =          0, [$t8] =          0, [$t9] =          0
#  
# Time  =         14, [clk] = 1
# [$s0] =          8, [$s1] =          8, [$s2] =          0
# [$s3] =          0, [$s4] =          0, [$s5] =          0
# [$s6] =          0, [$s7] =          0, [$t0] =          2
# [$t1] =         26, [$t2] =         10, [$t3] =          0
# [$t4] =          0, [$t5] =          0, [$t6] =          0
# [$t7] =          0, [$t8] =          0, [$t9] =          0
#  
# Time  =         14, [clk] = 0
# [$s0] =          8, [$s1] =          8, [$s2] =          0
# [$s3] =          0, [$s4] =          0, [$s5] =          0
# [$s6] =          0, [$s7] =          0, [$t0] =          2
# [$t1] =         26, [$t2] =         10, [$t3] =          0
# [$t4] =          0, [$t5] =          0, [$t6] =          0
# [$t7] =          0, [$t8] =          0, [$t9] =          0
#  
# Time  =         15, [clk] = 1
# [$s0] =          8, [$s1] =          8, [$s2] =          0
# [$s3] =          0, [$s4] =          0, [$s5] =          0
# [$s6] =          0, [$s7] =          0, [$t0] =          2
# [$t1] =         26, [$t2] =         10, [$t3] =          0
# [$t4] =          0, [$t5] =          0, [$t6] =          0
# [$t7] =          0, [$t8] =          0, [$t9] =          0
#  
# Time  =         15, [clk] = 0
# [$s0] =          8, [$s1] =          8, [$s2] =          0
# [$s3] =          0, [$s4] =          0, [$s5] =          0
# [$s6] =          0, [$s7] =          0, [$t0] =          2
# [$t1] =         26, [$t2] =         10, [$t3] =          0
# [$t4] =          0, [$t5] =          0, [$t6] =          0
# [$t7] =          0, [$t8] =          0, [$t9] =          0
#  
# Time  =         16, [clk] = 1
# [$s0] =          8, [$s1] =          8, [$s2] =          0
# [$s3] =          0, [$s4] =          0, [$s5] =          0
# [$s6] =          0, [$s7] =          0, [$t0] =          2
# [$t1] =         26, [$t2] =         10, [$t3] =          0
# [$t4] =          0, [$t5] =          0, [$t6] =          0
# [$t7] =          0, [$t8] =          0, [$t9] =          0
#  
# Time  =         16, [clk] = 0
# [$s0] =          8, [$s1] =          8, [$s2] =          0
# [$s3] =          0, [$s4] =          0, [$s5] =          0
# [$s6] =          0, [$s7] =          0, [$t0] =          2
# [$t1] =         26, [$t2] =         10, [$t3] =          0
# [$t4] =          0, [$t5] =          0, [$t6] =          0
# [$t7] =          0, [$t8] =          0, [$t9] =          0
#  
# Time  =         17, [clk] = 1
# [$s0] =          8, [$s1] =          8, [$s2] =          0
# [$s3] =          0, [$s4] =          0, [$s5] =          0
# [$s6] =          0, [$s7] =          0, [$t0] =          2
# [$t1] =         26, [$t2] =         10, [$t3] =          0
# [$t4] =          0, [$t5] =          0, [$t6] =          0
# [$t7] =          0, [$t8] =          0, [$t9] =          0
#  
# Time  =         17, [clk] = 0
# [$s0] =          8, [$s1] =          8, [$s2] =          0
# [$s3] =          0, [$s4] =          0, [$s5] =          0
# [$s6] =          0, [$s7] =          0, [$t0] =          2
# [$t1] =         26, [$t2] =         10, [$t3] =          0
# [$t4] =          0, [$t5] =          0, [$t6] =          0
# [$t7] =          0, [$t8] =          0, [$t9] =          0
#  
# Time  =         18, [clk] = 1
# [$s0] =          8, [$s1] =          8, [$s2] =          0
# [$s3] =          0, [$s4] =          0, [$s5] =          0
# [$s6] =          0, [$s7] =          0, [$t0] =          2
# [$t1] =         26, [$t2] =         10, [$t3] =          0
# [$t4] =          0, [$t5] =          0, [$t6] =          0
# [$t7] =          0, [$t8] =          0, [$t9] =          0
#  
# Time  =         18, [clk] = 0
# [$s0] =          8, [$s1] =          8, [$s2] =          0
# [$s3] =          0, [$s4] =          0, [$s5] =          0
# [$s6] =          0, [$s7] =          0, [$t0] =          2
# [$t1] =         26, [$t2] =         10, [$t3] =          0
# [$t4] =          0, [$t5] =          0, [$t6] =          0
# [$t7] =          0, [$t8] =          0, [$t9] =          0
#  
# Time  =         19, [clk] = 1
# [$s0] =          8, [$s1] =          8, [$s2] =          0
# [$s3] =          0, [$s4] =          0, [$s5] =          0
# [$s6] =          0, [$s7] =          0, [$t0] =          2
# [$t1] =         26, [$t2] =         10, [$t3] =          0
# [$t4] =          0, [$t5] =          0, [$t6] =          0
# [$t7] =          0, [$t8] =          0, [$t9] =          0
#  
# Time  =         19, [clk] = 0
# [$s0] =          8, [$s1] =          8, [$s2] =          0
# [$s3] =          0, [$s4] =          0, [$s5] =          0
# [$s6] =          0, [$s7] =          0, [$t0] =          2
# [$t1] =         26, [$t2] =         10, [$t3] =          0
# [$t4] =          0, [$t5] =          0, [$t6] =          0
# [$t7] =          0, [$t8] =          0, [$t9] =          0
#  
# Time  =         20, [clk] = 1
# [$s0] =          8, [$s1] =          8, [$s2] =          0
# [$s3] =          0, [$s4] =          0, [$s5] =          0
# [$s6] =          0, [$s7] =          0, [$t0] =          2
# [$t1] =         26, [$t2] =         10, [$t3] =          0
# [$t4] =          0, [$t5] =          0, [$t6] =          0
# [$t7] =          0, [$t8] =          0, [$t9] =          0
#  
# Time  =         20, [clk] = 0
# [$s0] =          8, [$s1] =          8, [$s2] =          0
# [$s3] =          0, [$s4] =          0, [$s5] =          0
# [$s6] =          0, [$s7] =          0, [$t0] =          2
# [$t1] =         26, [$t2] =         10, [$t3] =          0
# [$t4] =          0, [$t5] =          0, [$t6] =          0
# [$t7] =          0, [$t8] =          0, [$t9] =          0
#  
# Time  =         21, [clk] = 1
# [$s0] =          8, [$s1] =          8, [$s2] =          0
# [$s3] =          0, [$s4] =          0, [$s5] =          0
# [$s6] =          0, [$s7] =          0, [$t0] =          2
# [$t1] =         26, [$t2] =         10, [$t3] =          0
# [$t4] =          0, [$t5] =          0, [$t6] =          0
# [$t7] =          0, [$t8] =          0, [$t9] =          0
#  
# Time  =         21, [clk] = 0
# [$s0] =          8, [$s1] =          8, [$s2] =          0
# [$s3] =          0, [$s4] =          0, [$s5] =          0
# [$s6] =          0, [$s7] =          0, [$t0] =          2
# [$t1] =         26, [$t2] =         10, [$t3] =          0
# [$t4] =          0, [$t5] =          0, [$t6] =          0
# [$t7] =          0, [$t8] =          0, [$t9] =          0
#  
# Time  =         22, [clk] = 1
# [$s0] =          8, [$s1] =          8, [$s2] =          0
# [$s3] =          0, [$s4] =          0, [$s5] =          0
# [$s6] =          0, [$s7] =          0, [$t0] =          2
# [$t1] =         26, [$t2] =         10, [$t3] =          0
# [$t4] =          0, [$t5] =          0, [$t6] =          0
# [$t7] =          0, [$t8] =          0, [$t9] =          0
#  
# Time  =         22, [clk] = 0
# [$s0] =          8, [$s1] =          8, [$s2] =          0
# [$s3] =          0, [$s4] =          0, [$s5] =          0
# [$s6] =          0, [$s7] =          0, [$t0] =          2
# [$t1] =         26, [$t2] =         10, [$t3] =          0
# [$t4] =          0, [$t5] =          0, [$t6] =          0
# [$t7] =          0, [$t8] =          0, [$t9] =          0
#  
# Time  =         23, [clk] = 1
# [$s0] =          8, [$s1] =          8, [$s2] =          0
# [$s3] =          0, [$s4] =          0, [$s5] =          0
# [$s6] =          0, [$s7] =          0, [$t0] =          2
# [$t1] =         26, [$t2] =         10, [$t3] =          0
# [$t4] =          0, [$t5] =          0, [$t6] =          0
# [$t7] =          0, [$t8] =          0, [$t9] =          0
#  
# Time  =         23, [clk] = 0
# [$s0] =          8, [$s1] =          8, [$s2] =          0
# [$s3] =          0, [$s4] =          0, [$s5] =          0
# [$s6] =          0, [$s7] =          0, [$t0] =          2
# [$t1] =         26, [$t2] =         10, [$t3] =          0
# [$t4] =          0, [$t5] =          0, [$t6] =          0
# [$t7] =          0, [$t8] =          0, [$t9] =          0
#  
# Time  =         24, [clk] = 1
# [$s0] =          8, [$s1] =          8, [$s2] =          0
# [$s3] =          0, [$s4] =          0, [$s5] =          0
# [$s6] =          0, [$s7] =          0, [$t0] =          2
# [$t1] =         26, [$t2] =         10, [$t3] =          0
# [$t4] =          0, [$t5] =          0, [$t6] =          0
# [$t7] =          0, [$t8] =          0, [$t9] =          0
#  
# Time  =         24, [clk] = 0
# [$s0] =          8, [$s1] =          8, [$s2] =          0
# [$s3] =          0, [$s4] =          0, [$s5] =          0
# [$s6] =          0, [$s7] =          0, [$t0] =          2
# [$t1] =         26, [$t2] =         10, [$t3] =          0
# [$t4] =          0, [$t5] =          0, [$t6] =          0
# [$t7] =          0, [$t8] =          0, [$t9] =          0
#  
# Time  =         25, [clk] = 1
# [$s0] =          8, [$s1] =          8, [$s2] =          0
# [$s3] =          0, [$s4] =          0, [$s5] =          0
# [$s6] =          0, [$s7] =          0, [$t0] =          2
# [$t1] =         26, [$t2] =         10, [$t3] =          0
# [$t4] =          0, [$t5] =          0, [$t6] =          0
# [$t7] =          0, [$t8] =          0, [$t9] =          0
#  
# Time  =         25, [clk] = 0
# [$s0] =          8, [$s1] =          8, [$s2] =          0
# [$s3] =          0, [$s4] =          0, [$s5] =          0
# [$s6] =          0, [$s7] =          0, [$t0] =          2
# [$t1] =         26, [$t2] =         10, [$t3] =          0
# [$t4] =          0, [$t5] =          0, [$t6] =          0
# [$t7] =          0, [$t8] =          0, [$t9] =          0
#  
# Time  =         26, [clk] = 1
# [$s0] =          8, [$s1] =          8, [$s2] =          0
# [$s3] =          0, [$s4] =          0, [$s5] =          0
# [$s6] =          0, [$s7] =          0, [$t0] =          2
# [$t1] =         26, [$t2] =         10, [$t3] =          0
# [$t4] =          0, [$t5] =          0, [$t6] =          0
# [$t7] =          0, [$t8] =          0, [$t9] =          0
#  
# Time  =         26, [clk] = 0
# [$s0] =          8, [$s1] =          8, [$s2] =          0
# [$s3] =          0, [$s4] =          0, [$s5] =          0
# [$s6] =          0, [$s7] =          0, [$t0] =          2
# [$t1] =         26, [$t2] =         10, [$t3] =          0
# [$t4] =          0, [$t5] =          0, [$t6] =          0
# [$t7] =          0, [$t8] =          0, [$t9] =          0
#  
# Time  =         27, [clk] = 1
# [$s0] =          8, [$s1] =          8, [$s2] =          0
# [$s3] =          0, [$s4] =          0, [$s5] =          0
# [$s6] =          0, [$s7] =          0, [$t0] =          2
# [$t1] =         26, [$t2] =         10, [$t3] =          0
# [$t4] =          0, [$t5] =          0, [$t6] =          0
# [$t7] =          0, [$t8] =          0, [$t9] =          0
#  
# Time  =         27, [clk] = 0
# [$s0] =          8, [$s1] =          8, [$s2] =          0
# [$s3] =          0, [$s4] =          0, [$s5] =          0
# [$s6] =          0, [$s7] =          0, [$t0] =          2
# [$t1] =         26, [$t2] =         10, [$t3] =          0
# [$t4] =          0, [$t5] =          0, [$t6] =          0
# [$t7] =          0, [$t8] =          0, [$t9] =          0
#  
# Time  =         28, [clk] = 1
# [$s0] =          8, [$s1] =          8, [$s2] =          0
# [$s3] =          0, [$s4] =          0, [$s5] =          0
# [$s6] =          0, [$s7] =          0, [$t0] =          2
# [$t1] =         26, [$t2] =         10, [$t3] =          0
# [$t4] =          0, [$t5] =          0, [$t6] =          0
# [$t7] =          0, [$t8] =          0, [$t9] =          0
#  
# Time  =         28, [clk] = 0
# [$s0] =          8, [$s1] =          8, [$s2] =          0
# [$s3] =          0, [$s4] =          0, [$s5] =          0
# [$s6] =          0, [$s7] =          0, [$t0] =          2
# [$t1] =         26, [$t2] =         10, [$t3] =          0
# [$t4] =          0, [$t5] =          0, [$t6] =          0
# [$t7] =          0, [$t8] =          0, [$t9] =          0
#  
# Time  =         29, [clk] = 1
# [$s0] =          8, [$s1] =          8, [$s2] =          0
# [$s3] =          0, [$s4] =          0, [$s5] =          0
# [$s6] =          0, [$s7] =          0, [$t0] =          2
# [$t1] =         26, [$t2] =         10, [$t3] =          0
# [$t4] =          0, [$t5] =          0, [$t6] =          0
# [$t7] =          0, [$t8] =          0, [$t9] =          0
#  
# Time  =         29, [clk] = 0
# [$s0] =          8, [$s1] =          8, [$s2] =          0
# [$s3] =          0, [$s4] =          0, [$s5] =          0
# [$s6] =          0, [$s7] =          0, [$t0] =          2
# [$t1] =         26, [$t2] =         10, [$t3] =          0
# [$t4] =          0, [$t5] =          0, [$t6] =          0
# [$t7] =          0, [$t8] =          0, [$t9] =          0
#  
# Time  =         30, [clk] = 1
# [$s0] =          8, [$s1] =          8, [$s2] =          0
# [$s3] =          0, [$s4] =          0, [$s5] =          0
# [$s6] =          0, [$s7] =          0, [$t0] =          2
# [$t1] =         26, [$t2] =         10, [$t3] =          0
# [$t4] =          0, [$t5] =          0, [$t6] =          0
# [$t7] =          0, [$t8] =          0, [$t9] =          0
#  
# Time  =         30, [clk] = 0
# [$s0] =          8, [$s1] =          8, [$s2] =          0
# [$s3] =          0, [$s4] =          0, [$s5] =          0
# [$s6] =          0, [$s7] =          0, [$t0] =          2
# [$t1] =         26, [$t2] =         10, [$t3] =          0
# [$t4] =          0, [$t5] =          0, [$t6] =          0
# [$t7] =          0, [$t8] =          0, [$t9] =          0
#  
# Time  =         31, [clk] = 1
# [$s0] =          8, [$s1] =          8, [$s2] =          0
# [$s3] =          0, [$s4] =          0, [$s5] =          0
# [$s6] =          0, [$s7] =          0, [$t0] =          2
# [$t1] =         26, [$t2] =         10, [$t3] =          0
# [$t4] =          0, [$t5] =          0, [$t6] =          0
# [$t7] =          0, [$t8] =          0, [$t9] =          0
#  
# Time  =         31, [clk] = 0
# [$s0] =          8, [$s1] =          8, [$s2] =          0
# [$s3] =          0, [$s4] =          0, [$s5] =          0
# [$s6] =          0, [$s7] =          0, [$t0] =          2
# [$t1] =         26, [$t2] =         10, [$t3] =          0
# [$t4] =          0, [$t5] =          0, [$t6] =          0
# [$t7] =          0, [$t8] =          0, [$t9] =          0
#  
# Time  =         32, [clk] = 1
# [$s0] =          8, [$s1] =          8, [$s2] =          0
# [$s3] =          0, [$s4] =          0, [$s5] =          0
# [$s6] =          0, [$s7] =          0, [$t0] =          2
# [$t1] =         26, [$t2] =         10, [$t3] =          0
# [$t4] =          0, [$t5] =          0, [$t6] =          0
# [$t7] =          0, [$t8] =          0, [$t9] =          0
#  
# Time  =         32, [clk] = 0
# [$s0] =          8, [$s1] =          8, [$s2] =          0
# [$s3] =          0, [$s4] =          0, [$s5] =          0
# [$s6] =          0, [$s7] =          0, [$t0] =          2
# [$t1] =         26, [$t2] =         10, [$t3] =          0
# [$t4] =          0, [$t5] =          0, [$t6] =          0
# [$t7] =          0, [$t8] =          0, [$t9] =          0
#  
# Time  =         33, [clk] = 1
# [$s0] =          8, [$s1] =          8, [$s2] =          0
# [$s3] =          0, [$s4] =          0, [$s5] =          0
# [$s6] =          0, [$s7] =          0, [$t0] =          2
# [$t1] =         26, [$t2] =         10, [$t3] =          0
# [$t4] =          0, [$t5] =          0, [$t6] =          0
# [$t7] =          0, [$t8] =          0, [$t9] =          0
#  
# Time  =         33, [clk] = 0
# [$s0] =          8, [$s1] =          8, [$s2] =          0
# [$s3] =          0, [$s4] =          0, [$s5] =          0
# [$s6] =          0, [$s7] =          0, [$t0] =          2
# [$t1] =         26, [$t2] =         10, [$t3] =          0
# [$t4] =          0, [$t5] =          0, [$t6] =          0
# [$t7] =          0, [$t8] =          0, [$t9] =          0
#  
# Time  =         34, [clk] = 1
# [$s0] =          8, [$s1] =          8, [$s2] =          0
# [$s3] =          0, [$s4] =          0, [$s5] =          0
# [$s6] =          0, [$s7] =          0, [$t0] =          2
# [$t1] =         26, [$t2] =         10, [$t3] =          0
# [$t4] =          0, [$t5] =          0, [$t6] =          0
# [$t7] =          0, [$t8] =          0, [$t9] =          0
#  
# Time  =         34, [clk] = 0
# [$s0] =          8, [$s1] =          8, [$s2] =          0
# [$s3] =          0, [$s4] =          0, [$s5] =          0
# [$s6] =          0, [$s7] =          0, [$t0] =          2
# [$t1] =         26, [$t2] =         10, [$t3] =          0
# [$t4] =          0, [$t5] =          0, [$t6] =          0
# [$t7] =          0, [$t8] =          0, [$t9] =          0
#  
# Time  =         35, [clk] = 1
# [$s0] =          8, [$s1] =          8, [$s2] =          0
# [$s3] =          0, [$s4] =          0, [$s5] =          0
# [$s6] =          0, [$s7] =          0, [$t0] =          2
# [$t1] =         26, [$t2] =         10, [$t3] =          0
# [$t4] =          0, [$t5] =          0, [$t6] =          0
# [$t7] =          0, [$t8] =          0, [$t9] =          0
#  
# Time  =         35, [clk] = 0
# [$s0] =          8, [$s1] =          8, [$s2] =          0
# [$s3] =          0, [$s4] =          0, [$s5] =          0
# [$s6] =          0, [$s7] =          0, [$t0] =          2
# [$t1] =         26, [$t2] =         10, [$t3] =          0
# [$t4] =          0, [$t5] =          0, [$t6] =          0
# [$t7] =          0, [$t8] =          0, [$t9] =          0
#  
# Time  =         36, [clk] = 1
# [$s0] =          8, [$s1] =          8, [$s2] =          0
# [$s3] =          0, [$s4] =          0, [$s5] =          0
# [$s6] =          0, [$s7] =          0, [$t0] =          2
# [$t1] =         26, [$t2] =         10, [$t3] =          0
# [$t4] =          0, [$t5] =          0, [$t6] =          0
# [$t7] =          0, [$t8] =          0, [$t9] =          0
#  
# Time  =         36, [clk] = 0
# [$s0] =          8, [$s1] =          8, [$s2] =          0
# [$s3] =          0, [$s4] =          0, [$s5] =          0
# [$s6] =          0, [$s7] =          0, [$t0] =          2
# [$t1] =         26, [$t2] =         10, [$t3] =          0
